{
  "name" : "Saeko",
  "skills" : [
    {
      "name" : "Zoroa",
      "description" : "Leírásosososos",
      "cost" : [
        {
          "name" : "tool",
          "count" : 3
        }
      ],
      "effects" : [
        {
          "value" : 0,
          "type" : "ATTACK_PHYSICAL",
          "effected" : "ALL",
          "round" : 1
        }
      ],
      "classes": ["TACTICAL", "STRATEGY"],
      "img" : "../../../assets/game/Zoro.png",
      "cd" : 2
    },
    {
      "name" : "Zorob",
      "description" : "Leírásosososos",
      "cost" : [
        {
          "name" : "tool",
          "count" : 3
        }
      ],
      "effects" : [
        {
          "value" : 0,
          "type" : "ATTACK_PHYSICAL",
          "effected" : "ALL",
          "round" : 1
        }
      ],
      "classes": ["TACTICAL", "STRATEGY"],
      "img" : "../../../assets/game/Zoro.png",
      "cd" : 2
    },
    {
      "name" : "Zoroc",
      "description" : "Leírásosososos",
      "cost" : [
        {
          "name" : "tool",
          "count" : 3
        }
      ],
      "effects" : [
        {
          "value" : 0,
          "type" : "ATTACK_PHYSICAL",
          "effected" : "ALL",
          "round" : 1
        }
      ],
      "classes": ["TACTICAL", "STRATEGY"],
      "img" : "../../../assets/game/Zoro.png",
      "cd" : 2
    },
    {
      "name" : "Zorod",
      "description" : "Leírásosososos",
      "cost" : [
        {
          "name" : "tool",
          "count" : 3
        }
      ],
      "effects" : [
        {
          "value" : 0,
          "type" : "ATTACK_PHYSICAL",
          "effected" : "ALL",
          "round" : 1
        }
      ],
      "classes": ["TACTICAL", "STRATEGY"],
      "img" : "../../../assets/game/Zoro.png",
      "cd" : 2
    },
    {
      "name" : "Zoroe",
      "description" : "Leírásosososos",
      "cost" : [
        {
          "name" : "tool",
          "count" : 3
        }
      ],
      "effects" : [
        {
          "value" : 0,
          "type" : "ATTACK_PHYSICAL",
          "effected" : "ALL",
          "round" : 1
        }
      ],
      "classes": ["TACTICAL", "STRATEGY"],
      "img" : "../../../assets/game/Zoro.png",
      "cd" : 2
    },
    {
      "name" : "Zorof",
      "description" : "Leírásosososos",
      "cost" : [
        {
          "name" : "tool",
          "count" : 3
        }
      ],
      "effects" : [
        {
          "value" : 0,
          "type" : "ATTACK_PHYSICAL",
          "effected" : "ALL",
          "round" : 1
        }
      ],
      "classes": ["TACTICAL", "STRATEGY"],
      "img" : "../../../assets/game/Zoro.png",
      "cd" : 2
    }

  ],
  "altSkills" : [],
  "img" : "../../../assets/characterFP/SaekoFP.png",
  "health" : 100,
  "energy" : 0,
  "fury" : 0
}